^C:\USERS\AMIT\DOCUMENTS\CLASSES\C++\WINAPI\WINAPI\WINAPI\COMMAND.CPP
/c /ZI /nologo /W3 /WX- /sdl /Od /Oy- /D _MBCS /Gm /EHsc /RTC1 /MDd /GS /fp:precise /Zc:wchar_t /Zc:forScope /Fo"DEBUG\\" /Fd"DEBUG\VC120.PDB" /Gd /TP /analyze- C:\USERS\AMIT\DOCUMENTS\CLASSES\C++\WINAPI\WINAPI\WINAPI\COMMAND.CPP
^C:\USERS\AMIT\DOCUMENTS\CLASSES\C++\WINAPI\WINAPI\WINAPI\HELPER.CPP
/c /ZI /nologo /W3 /WX- /sdl /Od /Oy- /D _MBCS /Gm /EHsc /RTC1 /MDd /GS /fp:precise /Zc:wchar_t /Zc:forScope /Fo"DEBUG\\" /Fd"DEBUG\VC120.PDB" /Gd /TP /analyze- C:\USERS\AMIT\DOCUMENTS\CLASSES\C++\WINAPI\WINAPI\WINAPI\HELPER.CPP
^C:\USERS\AMIT\DOCUMENTS\CLASSES\C++\WINAPI\WINAPI\WINAPI\SOURCE.CPP
/c /ZI /nologo /W3 /WX- /sdl /Od /Oy- /D _MBCS /Gm /EHsc /RTC1 /MDd /GS /fp:precise /Zc:wchar_t /Zc:forScope /Fo"DEBUG\\" /Fd"DEBUG\VC120.PDB" /Gd /TP /analyze- C:\USERS\AMIT\DOCUMENTS\CLASSES\C++\WINAPI\WINAPI\WINAPI\SOURCE.CPP
